module demosrv

go 1.19

require (
	github.com/dimfeld/httptreemux/v5 v5.5.0 // indirect
	github.com/golang/protobuf v1.5.2 // indirect
	github.com/gorilla/mux v1.8.0 // indirect
	github.com/newrelic/go-agent/v3 v3.20.3 // indirect
	golang.org/x/net v0.0.0-20201021035429-f5854403a974 // indirect
	golang.org/x/sys v0.0.0-20210119212857-b64e53b001e4 // indirect
	golang.org/x/text v0.3.3 // indirect
	google.golang.org/genproto v0.0.0-20200526211855-cb27e3aa2013 // indirect
	google.golang.org/grpc v1.49.0 // indirect
	google.golang.org/protobuf v1.27.1 // indirect
)
